<?xml version="1.0" encoding="UTF-8" standalone="no"?>
<!-- Created with Inkscape (http://www.inkscape.org/) -->

<svg
   xmlns:dc="http://purl.org/dc/elements/1.1/"
   xmlns:cc="http://creativecommons.org/ns#"
   xmlns:rdf="http://www.w3.org/1999/02/22-rdf-syntax-ns#"
   xmlns:svg="http://www.w3.org/2000/svg"
   xmlns="http://www.w3.org/2000/svg"
   xmlns:sodipodi="http://sodipodi.sourceforge.net/DTD/sodipodi-0.dtd"
   xmlns:inkscape="http://www.inkscape.org/namespaces/inkscape"
   width="700"
   height="1200"
   viewBox="0 0 700 1200"
   id="svg4155"
   version="1.1"
   inkscape:version="0.91 r"
   inkscape:export-filename="/media/christophe/GrosDisque/Fichiersdetravail/Projets_Libres/GuideLibreAsso/gla/images/ptitbonhomme2.png"
   inkscape:export-xdpi="299.95715"
   inkscape:export-ydpi="299.95715"
   sodipodi:docname="ptibonhomme3.svg">
  <defs
     id="defs4157" />
  <sodipodi:namedview
     id="base"
     pagecolor="#ffffff"
     bordercolor="#cc0067"
     borderopacity="1"
     inkscape:pageopacity="0.0"
     inkscape:pageshadow="2"
     inkscape:zoom="0.98994949"
     inkscape:cx="285.11533"
     inkscape:cy="684.91022"
     inkscape:document-units="px"
     inkscape:current-layer="layer1"
     showgrid="false"
     units="px"
     borderlayer="true"
     inkscape:window-width="1920"
     inkscape:window-height="1028"
     inkscape:window-x="0"
     inkscape:window-y="0"
     inkscape:window-maximized="1" />
  <metadata
     id="metadata4160">
    <rdf:RDF>
      <cc:Work
         rdf:about="">
        <dc:format>image/svg+xml</dc:format>
        <dc:type
           rdf:resource="http://purl.org/dc/dcmitype/StillImage" />
        <dc:title></dc:title>
      </cc:Work>
    </rdf:RDF>
  </metadata>
  <g
     inkscape:label="Calque 1"
     inkscape:groupmode="layer"
     id="layer1"
     transform="translate(0,147.63786)">
    <path
       style="opacity:1;fill:#ffffff;fill-opacity:1;fill-rule:nonzero;stroke:none;stroke-width:1.70000005;stroke-linecap:round;stroke-linejoin:round;stroke-miterlimit:2.70000005;stroke-dasharray:none;stroke-dashoffset:0;stroke-opacity:1"
       d="m 318.8422,169.70659 c -13.57476,2.19454 -25.44107,10.6476 -31.75072,22.50363 -6.16225,11.49114 -10.98548,27.51507 -9.73972,40.62229 0.75593,15.14452 2.02506,30.20351 5.705,44.92235 6.31685,11.51731 22.09661,18.1919 34.45591,19.27037 15.90625,0.67628 34.52657,-1.30165 48.93925,-8.33218 15.16135,-7.31611 26.7411,-26.30205 26.12493,-43.41586 -0.75874,-22.88994 -11.22864,-45.01687 -27.04241,-61.34068 -5.12965,-4.97089 -12.62927,-10.23209 -19.56194,-11.83455 -8.17773,-0.39553 -15.01326,0.60047 -23.05664,-0.7952 -0.25541,-0.97892 -2.36181,-1.9833 -4.07366,-1.60017 z m 22.68276,41.19698 c 8.76973,1.06214 12.14695,9.67325 14.91489,17.22378 2.67661,7.92858 0.90143,16.0866 -3.68862,23.012 -3.61485,3.66381 -4.56524,6.66749 -9.91629,7.66601 -3.5406,-0.46371 -4.4034,-3.71524 -7.98828,-4.04436 -7.63643,-4.13244 8.13399,-11.79561 -6.17613,-19.1768 0.0929,-6.59967 1.99542,-11.79757 5.07959,-17.51405 0.92287,-4.29921 3.31517,-7.16606 7.77484,-7.16658 z"
       id="path4818"
       inkscape:connector-curvature="0"
       transform="translate(0,-147.63786)"
       sodipodi:nodetypes="ccccccccccccccccccc" />
    <path
       style="opacity:1;fill:#ffffff;fill-opacity:1;fill-rule:nonzero;stroke:none;stroke-width:1.70000005;stroke-linecap:round;stroke-linejoin:round;stroke-miterlimit:2.70000005;stroke-dasharray:none;stroke-dashoffset:0;stroke-opacity:1"
       d="m 430.56513,182.59024 c -4.1995,2.47231 -7.17892,7.91725 -9.92885,11.85128 -8.49021,14.62378 -12.92835,34.33417 -11.98164,51.11326 -0.56506,13.96918 2.174,30.29145 11.84213,40.97938 9.58635,9.98093 29.40534,9.78242 40.43806,3.33147 9.8097,-5.39177 17.33705,-15.16996 19.60352,-26.23562 2.89287,-8.31252 5.57088,-20.68769 2.27567,-29.13129 -5.15073,-14.8229 -11.59729,-29.16894 -22.10938,-40.93611 -5.54165,-6.58571 -17.59403,-8.20122 -25.42411,-9.20619 -1.27129,-0.0691 -3.46702,-1.69886 -4.7154,-1.76618 z m 5.18276,37.613 c 8.9888,0.63004 13.82722,10.59981 14.34012,18.63561 0.0586,4.59356 -1.83143,9.08979 -4.56334,12.613 0.15934,4.45269 -4.12823,7.32968 -7.53906,9.28153 -0.95844,-0.76837 -1.67752,-2.37756 -3.3803,-2.08706 -8.47588,-3.35551 -13.86526,-12.54787 -12.60408,-21.61184 -0.20573,-6.73955 4.65409,-12.87915 10.26033,-16.08207 1.0961,-0.48183 2.28704,-0.75288 3.48633,-0.74917 z"
       id="path4820"
       inkscape:connector-curvature="0"
       transform="translate(0,-147.63786)"
       sodipodi:nodetypes="cccccccccccccccccc" />
    <path
       style="color:#000000;clip-rule:nonzero;display:inline;overflow:visible;visibility:visible;opacity:1;isolation:auto;mix-blend-mode:normal;color-interpolation:sRGB;color-interpolation-filters:linearRGB;solid-color:#000000;solid-opacity:1;fill:#000000;fill-opacity:1;fill-rule:nonzero;stroke:none;stroke-width:1;stroke-linecap:butt;stroke-linejoin:miter;stroke-miterlimit:4;stroke-dasharray:none;stroke-dashoffset:0;stroke-opacity:1;color-rendering:auto;image-rendering:auto;shape-rendering:auto;text-rendering:auto;enable-background:accumulate"
       d="m 442.3527,-99.34379 -5.29503,8.83498 c -9.47208,-8.03215 -22.70832,-9.46613 -34.61236,-10.79363 -4.71105,-0.17508 -9.4204,-0.58732 -14.13428,-0.52866 -22.05956,0.27484 -44.92276,4.74215 -63.92692,16.57235 -5.31927,3.31128 -9.99211,7.581469 -14.98775,11.370159 -12.63164,14.168598 -16.0901,16.206717 -24.82765,33.863665 -16.70127,33.749839 -20.27692,71.991151 -20.22205,109.118245 0.13838,1.980767 0.23392,3.967961 0.34716,5.95112 -0.25468,1.846611 -0.49446,3.697237 -0.77779,5.538542 -1.22136,18.913602 -1.23785,39.974319 8.99945,56.678089 5.62188,23.79669 14.21322,46.94697 26.65304,67.83582 3.39299,5.69746 7.52155,10.91734 11.28202,16.37557 3.85378,4.25319 7.44857,8.75925 11.56147,12.75834 11.65325,11.33097 26.12872,20.36577 42.05734,23.78034 -2.34624,5.61945 -5.35426,10.93512 -9.61911,15.33571 -2.17851,1.98506 -4.4802,3.68667 -6.90143,5.16604 -0.22407,-0.55733 -0.52077,-1.09282 -0.75373,-1.64791 l -0.27959,-0.23249 c -0.72062,-0.33294 -1.38294,-0.87772 -2.16701,-0.99571 -5.808,-0.87389 -13.11358,6.87953 -17.13538,9.73903 -19.93742,18.09784 -37.67686,38.4304 -54.63089,59.35799 -14.2446,17.65692 -27.71592,36.45004 -45.21277,51.03136 -5.48343,3.61163 -6.89353,9.67864 -12.29153,3.65561 l -12.8572,3.25051 c -1.55943,-4.07697 -3.06789,-8.16923 -4.01728,-12.43874 -6.56429,-25.31832 -9.87699,-51.24969 -11.4789,-77.35595 -1.29913,-17.34961 -2.44709,-34.72127 -4.20973,-52.0306 4.89023,-5.55934 11.2701,-9.00785 18.1439,-11.58469 7.76882,-2.65298 15.91712,-2.59746 23.99964,-2.24114 10.45708,0.26198 15.2114,-1.29709 21.01274,-10.38492 3.57162,-7.57817 2.92705,-15.50033 0.45404,-23.25583 -3.30226,-8.10491 -10.05766,-13.3204 -17.16358,-17.87764 -7.95973,-4.99526 -16.74547,-6.9104 -25.99933,-7.07555 -7.88935,0.37125 -15.35756,2.54213 -22.05035,6.73233 -0.0369,0.0283 -0.0729,0.0652 -0.10991,0.0942 1.44388,-8.07072 2.57186,-16.18526 3.19101,-24.37755 0.68395,-11.80604 -1.63647,-23.2571 -5.82905,-34.21203 -4.20035,-8.97984 -7.46866,-13.00635 -17.53939,-14.44002 -8.66311,0.21366 -15.69168,4.31977 -21.64331,10.3655 -6.07983,7.82176 -8.11948,17.6322 -9.51964,27.24532 -0.12189,1.62944 -0.21768,3.43875 -0.17591,5.2633 -3.33231,-3.48781 -7.25723,-6.44817 -11.50989,-9.07458 -11.35161,-5.88137 -20.447724,-6.35559 -32.476304,-2.59931 -6.683743,2.98236 -14.291799,6.53913 -18.371513,13.04566 -0.756018,1.20577 -1.218347,2.57562 -1.827307,3.86314 -2.263237,9.05451 3.235743,16.19283 7.593578,23.53861 3.383227,5.64779 6.408736,11.48966 10.454919,16.69552 0.718628,0.75163 1.5131,1.51185 2.359998,2.21594 -5.541028,-0.0753 -11.083625,0.19295 -16.624866,0.86763 -12.745246,2.05815 -21.90962,6.94604 -30.590881,16.45741 -5.605561,7.55336 -7.771637,16.60062 -4.186933,25.59991 0.708916,1.77973 1.77342,3.39323 2.662523,5.08887 7.810226,10.81845 18.529694,14.64614 31.150343,16.64545 10.486188,1.08018 20.895973,-0.86002 31.204384,-2.5626 0.963429,-0.16471 1.857379,-0.34825 2.763069,-0.52768 3.45981,12.82576 8.14026,25.3502 12.37497,37.9128 9.51802,26.78029 17.02503,54.12908 22.25278,82.06942 2.31534,13.08516 3.32007,26.34815 5.11316,39.50415 0.65819,4.8294 1.69677,12.99577 3.64346,17.82304 0.30924,0.76681 0.73249,1.47586 1.18588,2.16891 -0.58256,7.17393 -0.43574,14.52122 2.59083,21.05156 1.05887,2.28463 2.69686,4.24679 4.04754,6.36946 2.08433,1.69033 3.90735,3.77715 6.25462,5.07108 15.20108,8.37952 33.10476,0.39195 47.33793,-5.86971 19.85771,-9.89988 37.78622,-23.12211 55.30694,-36.66266 7.65338,-6.30687 15.92061,-12.14704 22.58258,-19.51467 l 8.75516,-8.10817 c 12.4515,-11.75107 17.22284,-14.32745 28.83573,-26.91225 5.96016,-6.56423 11.99103,-13.06047 18.11596,-19.46632 0.47928,10.02048 0.72703,20.04815 0.68495,30.08937 -0.37179,27.03696 -5.47781,53.60024 -11.5786,79.82571 -4.27526,18.93014 -11.25299,37.20848 -14.51379,56.36705 -0.10885,1.44082 -0.17139,2.9886 -0.16554,4.55881 -13.38336,19.16917 -20.09212,42.31152 -27.38651,64.31293 -13.10447,40.45402 -22.54337,81.93109 -30.68,123.64403 -3.37626,21.26515 -8.23668,43.13688 -6.28052,64.84518 -11.1776,-2.29965 -22.3661,-4.54157 -33.58078,-6.64844 -15.40807,-2.81038 -31.0101,-2.6681 -45.67338,3.40842 -3.02154,1.2521 -5.86598,2.902 -8.79888,4.35242 -14.44809,8.58274 -26.71704,20.40478 -35.97381,34.50332 -1.89519,2.88641 -3.53422,5.94042 -5.29872,8.90982 -9.20594,17.1669 -13.84172,36.10853 -16.75548,55.25524 -1.53385,10.78751 -1.07347,21.58661 1.56151,32.13037 1.72826,5.61818 1.98474,7.31692 6.88014,9.28926 l -1.12574,0.47327 c 3.10415,9.58395 10.02138,16.5587 17.61536,22.72348 10.39938,8.03058 22.63354,12.33569 35.18838,15.50858 17.393,3.84984 35.0874,1.80892 52.50085,-0.63568 13.39277,-1.98983 26.76518,-4.08159 39.70064,-8.17195 9.36711,-3.52101 18.32806,-8.31737 25.94283,-14.88336 2.19729,-2.18363 2.75084,-4.30009 2.49412,-6.68057 10.02292,0.27108 19.90367,1.75296 29.6518,4.10969 8.5226,2.07934 17.00033,5.9051 25.96929,4.94639 1.93061,-0.20581 3.80349,-0.78557 5.70568,-1.17733 10.28196,-3.52805 18.15707,-10.93629 25.19374,-18.98313 4.95064,-5.26208 7.72201,-11.3456 9.05293,-18.38411 0.66833,-6.91006 0.38384,-13.87447 0.1397,-20.80106 -0.0968,-4.97463 -0.37104,-9.91416 -1.53013,-14.75855 -0.65651,-2.32375 -1.69454,-4.66136 -4.15183,-5.3953 -0.51864,-0.0903 -0.94725,-0.30339 -1.35338,-0.54898 -0.11868,-0.21711 -0.19959,-0.45 -0.66766,-1.26278 -1.70141,-2.70023 -3.27188,-5.48423 -4.92131,-8.21698 -2.20142,-3.5322 -4.13121,-7.22888 -6.56016,-10.61448 l -0.65266,0.42251 c -1.19317,-1.73916 -2.45631,-3.4154 -3.97348,-4.87448 -1.14304,-1.3172 -5.21019,-3.15205 -4.70741,-5.30494 l 3.72849,-2.0074 c -0.63232,-0.8776 -1.28166,-1.73662 -1.89357,-2.62883 -0.66272,-0.96639 -1.2179,-2.0113 -1.92751,-2.94298 -0.20916,-0.27578 -0.46338,-0.5033 -0.69278,-0.75862 -1.39133,-17.64679 -2.32665,-35.29912 -2.57553,-53.01483 -0.18948,-37.71709 5.89539,-74.94251 13.4004,-111.75978 3.43859,-18.98212 9.52854,-37.35083 13.943,-56.09648 5.14007,14.99715 9.04587,30.39937 12.7293,45.82964 7.59747,32.10782 11.08406,64.92002 13.51344,97.76788 1.74959,23.42272 1.90852,46.91406 2.24162,70.38688 0.32142,5.39906 0.0266,10.97215 1.2373,16.28477 -3.49782,8.5247 -6.32076,17.3312 -8.87242,26.18626 -3.77825,13.99839 -5.42872,28.40741 -5.24717,42.8852 0.27072,5.7597 0.29954,12.10838 5.11265,15.92585 2.27559,0.70014 1.09934,0.63548 3.51775,0.10793 l 0.20704,-0.30244 c 1.52776,-1.11031 0.75857,-0.60718 2.28067,-1.5319 0.18362,-0.0992 0.33944,-0.22245 0.50006,-0.34268 l 0.93065,3.93425 c 11.83613,-2.64368 22.96217,-4.48856 35.12385,-3.80524 15.85943,2.3193 29.8081,10.86156 43.61294,18.53687 14.14945,7.92853 28.13099,16.4967 43.43143,22.05283 2.77772,1.00892 5.63185,1.78665 8.44812,2.68031 6.43652,1.4578 17.21935,3.78418 25.00416,1.20557 0.56877,0.3866 1.12778,0.78549 1.74792,1.08043 10.97395,5.21945 23.09672,2.4686 33.48285,-2.80891 3.21935,-1.63578 6.18435,-3.73872 9.2763,-5.60744 18.54518,-12.95444 34.17378,-29.51018 47.26836,-47.92598 8.54498,-13.22543 13.4648,-28.10006 11.95272,-43.99948 -0.30521,-3.2077 -1.04224,-6.35841 -1.56137,-9.53804 -4.27383,-17.35886 -12.42772,-33.83179 -26.11396,-45.62139 -2.88857,-2.4883 -6.14401,-4.50317 -9.21696,-6.75601 -16.92396,-10.52972 -36.52101,-13.96821 -55.67286,-17.94979 -11.687,-2.44376 -22.93798,-6.48928 -34.57918,-9.1011 -13.0052,-2.80446 -24.66576,-0.77921 -36.79026,4.19521 -4.69759,2.23175 -9.08866,5.00392 -13.05749,8.29832 0.002,-13.8733 -3.3004,-27.58356 -6.1982,-41.08771 -3.03725,-12.8186 -5.78996,-25.69068 -8.39667,-38.59732 0.25201,0.0546 0.50346,0.0765 0.74637,0.0571 5.59764,3.98338 12.261,6.66611 19.13637,4.39454 1.55092,-0.5124 2.94086,-1.43198 4.41037,-2.14758 5.21745,-3.51293 9.11352,-8.38164 12.55854,-13.56466 2.46154,4.73961 6.25236,8.13789 10.74791,10.94523 3.87409,2.01992 8.44074,4.51928 12.95583,2.92723 1.31351,-0.46314 2.42645,-1.37945 3.63865,-2.06808 4.36581,-4.71805 5.11491,-11.02288 5.17421,-17.21427 -0.35274,-4.3558 -0.71384,-8.81492 -2.11448,-12.97251 -0.15621,-0.27987 -0.31788,-0.51667 -0.4896,-0.73608 0.46049,-2.50345 0.61055,-5.10749 0.68873,-7.72682 -0.1453,-19.94684 -1.53535,-39.91568 -6.47792,-59.31441 -4.6953,-17.60506 -10.93066,-34.56961 -18.0213,-51.33244 -2.17561,-6.95501 -4.10319,-14.01382 -4.90503,-21.20623 0.28877,-1.09473 0.58052,-2.20364 0.94843,-3.87026 1.35396,-6.13321 1.08714,-17.79302 1.14162,-23.63282 -0.89557,-14.0682 -0.80796,-17.13596 -2.94394,-31.47661 -3.69257,-24.79186 -10.33951,-48.98885 -17.95281,-72.81712 -11.38333,-34.93682 -23.21605,-69.72753 -33.73697,-104.94404 -5.70159,-18.2581 1.31365,-8.51318 -6.9757,-25.78827 l -14.8382,-16.89682 -0.63794,-9.82019 c 0.33963,-2.03016 0.69927,-4.05905 1.13243,-6.06965 2.7307,-2.66454 3.9306,-7.4225 5.79564,-10.30706 3.17247,-6.36961 6.37644,-12.7156 10.4371,-18.57614 9.24942,-15.67521 16.22518,-32.51006 22.76473,-49.48531 11.3515,-30.13801 21.72558,-60.78244 27.78341,-92.506927 0.91489,-5.638663 2.01495,-11.246899 2.7444,-16.91301 3.31998,-25.787995 2.43444,-51.9633 -4.30088,-77.142105 -1.28251,-4.101086 -2.41749,-8.25535 -3.85054,-12.305515 -5.8646,-16.574701 -14.51171,-32.124509 -24.93968,-46.198451 -8.79476,-10.421502 -18.52178,-19.753102 -30.79874,-25.930492 z m -121.4172,122.212116 -0.92276,2.486421 0.20144,0.303387 c 1.67051,0.182283 3.34232,0.364786 5.01287,0.5471 9.82501,-0.285817 19.46225,-2.789651 28.48199,2.733964 2.00744,1.405931 4.13815,2.656405 6.02451,4.223412 12.0955,10.047652 20.05493,24.130975 25.87208,38.552607 4.98498,15.182383 8.30612,29.282013 1.63983,44.587983 -1.1705,2.10347 -2.16703,4.3149 -3.50974,6.3111 -8.26444,12.2871 -21.47185,18.83473 -35.41544,22.31511 -16.06298,2.8834 -33.40967,4.85287 -48.82489,-2.17939 -2.41199,-1.10032 -4.56264,-2.71047 -6.84349,-4.06522 -1.86057,-1.88333 -3.97886,-3.53837 -5.58191,-5.64849 -0.74585,-0.98178 -1.4254,-1.99956 -2.06551,-3.03082 -2.1001,-10.3234 -3.71228,-20.73465 -4.79408,-31.127352 -0.7929,-7.617134 -1.08133,-15.277347 -1.41344,-22.93236 2.8108,-16.73088 7.2201,-31.244623 20.45855,-43.59359 1.85767,-1.333365 3.61415,-2.812085 5.56767,-3.99821 4.99332,-3.031702 10.46471,-4.777666 16.11222,-5.485715 z m 111.23311,13.575879 c -0.0535,0.430515 -0.094,0.863916 -0.18176,1.282319 l 0.20811,0.297425 c 3.7712,1.280845 7.50994,2.129731 11.53004,1.719485 10.17299,0.324156 15.56249,7.662946 21.04596,15.516048 7.60565,11.997859 14.76296,24.615172 17.51585,38.747124 0.19667,2.090635 0.54138,4.169825 0.59137,6.269244 0.0186,0.74793 -0.0421,1.47873 -0.067,2.2178 -1.77805,6.65396 -3.68716,13.27633 -5.74528,19.84949 -1.55389,2.75193 -3.34358,5.3925 -5.38305,7.86967 -1.64521,1.63311 -3.17119,3.39853 -4.93769,4.89735 -8.76043,7.43297 -19.69471,11.21677 -31.10207,9.69931 -1.88971,-0.57895 -3.86527,-0.91612 -5.66567,-1.73445 -11.85495,-5.38871 -15.88443,-19.01716 -18.06761,-30.78879 -1.95334,-19.449371 -1.34826,-37.326752 6.33962,-55.601771 1.2245,-2.409274 2.306,-4.896166 3.67304,-7.226282 2.83478,-4.831755 6.31175,-9.153085 10.2463,-13.014097 z M 280.19496,34.013693 c 0.0674,0.01568 0.13306,0.03859 0.20172,0.04737 -0.0827,0.110122 -0.15754,0.226521 -0.23976,0.33727 0.0133,-0.128319 0.0266,-0.256639 0.0383,-0.384864 z m 62.77957,27.537565 c -1.057,-0.196088 -2.13845,-0.142438 -3.80188,0.375234 -4.78003,1.487916 -6.70434,6.32459 -7.77624,10.787015 -0.52024,0.550459 -1.01722,1.133822 -1.46882,1.766199 -0.51369,1.026997 -1.13503,2.004073 -1.54049,3.07907 -0.85498,2.266715 -1.25826,4.628426 -1.30903,7.002842 -0.0732,0.692302 -0.11018,1.389493 -0.11683,2.090486 -0.97871,4.821706 -1.2368,9.727786 -0.1312,14.668226 0.36019,1.10012 0.59686,2.254 1.07973,3.30535 1.9602,4.2678 5.19537,6.25848 9.1467,5.92887 0.99528,0.75514 1.92197,1.64811 3.09318,2.04087 4.53446,1.52089 8.07987,-1.22254 10.72011,-4.76047 0.0338,-0.01 0.067,-0.0282 0.10088,-0.0385 0.94736,-0.7669 1.9977,-1.41854 2.83914,-2.302 5.01106,-5.26142 6.26192,-13.076309 6.21937,-20.043921 -0.19054,-1.389429 -0.26187,-2.79831 -0.57239,-4.16565 -0.50412,-2.218705 -1.39681,-4.40519 -2.66343,-6.311726 -1.15376,-3.288716 -2.83904,-6.390633 -5.36321,-8.295387 -1.39044,-1.541435 -2.99368,-2.90143 -4.81585,-3.999936 -1.55113,-0.482217 -2.58333,-0.930048 -3.6403,-1.126512 z m 58.53457,8.492415 c -0.21901,0.911599 -0.38292,1.836191 -0.57695,2.753502 -0.26265,-0.886724 -0.53846,-1.793775 -0.8189,-2.699385 0.46082,0.09032 0.92751,0.07559 1.39585,-0.05424 z m 87.63354,4.569025 c 0.0133,-8.76e-4 0.0266,0.0032 0.0369,0.0021 -0.002,0.02199 -0.005,0.03801 -0.0107,0.06181 -0.0107,-0.02199 -0.0186,-0.04238 -0.0285,-0.06374 z m -53.06476,-1.9636 c -1.27495,0.04142 -2.55959,0.353923 -3.83648,0.448331 -1.24009,0.791099 -2.63467,1.376127 -3.72181,2.369676 -1.38217,1.26312 -2.32134,2.806253 -2.99757,4.48398 -0.13625,0.11828 -0.29792,0.205493 -0.42532,0.334097 -3.88038,3.916353 -3.5101,10.477633 -2.99325,15.446648 1.442,5.50852 3.86296,10.1899 7.74006,12.28409 1.11123,1.38209 2.3993,2.4153 3.8971,2.8054 0.84871,0.22087 1.72234,0.24221 2.6023,0.21271 l 0.005,0.006 c 0.61718,0.82615 1.27282,1.63023 1.95973,2.42032 l 7.23408,-6.62167 c -0.27069,-0.39258 -0.54227,-0.83575 -0.8171,-1.24558 0.17591,-0.51062 0.29351,-1.05978 0.37255,-1.63453 4.11402,-4.464326 5.74309,-9.831666 4.57478,-16.864028 -1.90761,-5.837665 -5.36641,-13.338697 -12.32296,-14.375473 -0.42216,-0.06278 -0.84697,-0.08445 -1.27196,-0.07089 z m -35.08095,47.513822 c 0.058,0.25476 0.11843,0.50921 0.17883,0.76402 l -0.0133,-6.3e-4 c -0.24537,0.14245 -0.44805,0.33311 -0.68074,0.48963 0.16952,-0.41711 0.35479,-0.84004 0.51447,-1.25302 z m 66.91301,29.08217 c -0.20465,0.56703 -0.41772,1.13016 -0.62328,1.69671 -0.1775,-0.2855 -0.37932,-0.5673 -0.63935,-0.83724 -0.0266,-0.001 -0.0495,0.003 -0.0745,0.002 0.45641,-0.27201 0.88895,-0.57819 1.33712,-0.86194 z m -176.83874,5.12015 c 0.0239,0.0126 0.0482,0.0283 0.0722,0.0411 -0.016,0.0126 -0.0298,0.0283 -0.0455,0.0414 -0.007,-0.0283 -0.0186,-0.0549 -0.0277,-0.0825 z m -86.86501,252.5228 c 0.35658,0.35246 0.73498,0.66403 1.10872,0.98579 -0.21876,0.1164 -0.41419,0.25948 -0.57855,0.42616 -0.17324,-0.47168 -0.35282,-0.94141 -0.53017,-1.41195 z m 235.707,26.97374 c 2.14625,7.81825 4.35973,15.61864 6.41485,23.46022 8.03987,30.43305 11.89024,61.71024 15.02813,92.97165 1.87915,18.26796 2.29323,36.67418 3.93354,54.96159 -4.37125,2.45464 -8.33425,5.54257 -11.94569,9.09712 -0.45523,-1.63572 -0.90784,-3.2719 -1.41526,-4.89464 -1.40955,-4.0462 -3.07867,-7.9225 -6.27144,-10.69354 -0.0508,-0.1851 -0.0285,-0.0916 -0.13839,-0.57483 -0.81315,-3.42275 -2.23923,-6.64126 -3.32276,-9.97644 -0.68504,-2.6849 -1.62859,-5.22587 -2.75912,-7.74543 -0.17298,-0.53445 -0.41046,-0.93388 -0.6454,-1.33669 0.0285,-0.0251 0.0652,-0.0405 0.0958,-0.0637 1.43938,-1.08409 0.31833,-3.6054 0.43699,-5.41227 0.50943,-7.69128 0.48106,-9.4549 0.73726,-17.7634 0.61103,-31.82601 0.18149,-63.66348 0.0133,-95.49179 -0.11895,-8.84333 -0.12826,-17.68977 -0.16233,-26.53774 z m -124.6075,132.91945 c -0.001,0.59943 0.0373,1.19924 0.0836,1.80115 -0.2544,-0.0417 -0.50713,-0.10164 -0.76425,-0.0706 0.22061,-0.5797 0.45687,-1.1529 0.68075,-1.73128 z m 114.48475,16.53573 0.17883,0.01 c -0.0538,0.0188 -0.10991,0.0329 -0.16366,0.0539 -0.005,-0.022 -0.0107,-0.0421 -0.0159,-0.0631 z m 100.77115,121.666 c 0.38231,-0.01 0.27197,0.0251 -0.0623,0.01 0.0134,-3.4e-4 0.0517,-0.01 0.0623,-0.01 z m -50.20715,96.66851 c -0.22141,0.25852 -0.45331,0.50772 -0.66998,0.77092 -0.0285,-0.0753 -0.0431,-0.15248 -0.069,-0.22808 -0.0134,-0.18856 1.3e-4,-0.38362 -0.0285,-0.5692 l 0.7665,0.0251 z m -197.5843,136.28013 0.005,0.27516 c -0.0904,-0.0492 -0.18042,-0.10825 -0.27081,-0.1575 0.0879,-0.0402 0.17911,-0.074 0.26586,-0.11733 z m -164.50378,-6.07221 c 0.0585,0.1371 0.10142,0.27985 0.17803,0.40193 -0.13226,-0.0832 -0.19959,-0.21115 -0.17803,-0.40193 z"
       id="path4597"
       inkscape:connector-curvature="0"
       sodipodi:nodetypes="ccccscsccccscsccccccccccccccccccccccccccccccsccccccsccccccsccscsccccccccccccccsccccccccccccccccccccccccccccccccccccccccccccccccccccscccccsccccccccscccsccccccccscsccccccccccscsccccccccsccccscscscccccccccccccccscccccccccccccccccccccccccscccccccccccccccccccccccccccccccccccccccccccccccccccccccccccccccccccccccccccccccccccccccccccccccccccc" />
  </g>
</svg>
